[
	{
		"id": 1,
		"name": "Blekinge län"
	},
	{
		"name": "Dalarnas län"
	},
	{
		"name": "Gävleborgs län"
	},
	{
		"name": "Hallands län"
	},
	{
		"name": "Inaktiva organisationer"
	},
	{
		"name": "Jämtlands län"
	},
	{
		"name": "Jönköpings län"
	},
	{
		"name": "Kalmar län"
	},
	{
		"name": "Kronobergs län"
	},
	{
		"name": "Norrbottens län"
	},
	{
		"name": "Skåne län"
	},
	{
		"name": "Stockholms län"
	},
	{
		"name": "Sörmlands län"
	},
	{
		"name": "Uppsala län"
	},
	{
		"name": "Värmlands län"
	},
	{
		"name": "Västerbottens län"
	},
	{
		"name": "Västernorrlands län"
	},
	{
		"name": "Västmanlands län"
	},
	{
		"name": "Västra Götalands län"
	},
	{
		"name": "Örebro län"
	},
	{
		"name": "Östergötlands län"
	},
	{
		"name": "Aleris Holding AB"
	},
	{
		"name": "Almaso för tandvården AB"
	},
	{
		"name": "Ambea AB"
	},
	{
		"name": "Attendo Sverige AB"
	},
	{
		"name": "Capio AB"
	},
	{
		"name": "CompuGroup Medical Sweden AB"
	},
	{
		"name": "E-hälsomyndigheten"
	},
	{
		"name": "Inera AB"
	},
	{
		"name": "IT Omsorg i Stockholm AB"
	},
	{
		"name": "Kriminalvården"
	},
	{
		"name": "MYBW Office Management Gruppen Holding AB"
	},
	{
		"name": "Praktikertjänst AB"
	},
	{
		"name": "Socialstyrelsen"
	},
	{
		"name": "SOS Alarm Sverige AB"
	},
	{
		"name": "Statens institutionsstyrelse"
	},
	{
		"name": "Svensk e-identitet AB"
	},
	{
		"name": "Testdata i produktionsmiljö"
	},
	{
		"name": "Unilabs AB"
	},
	{
		"name": "Blekinge län » Capio Närsjukvård AB"
	},
	{
		"name": "Blekinge län » Hälsohuset för alla Karlskrona AB"
	},
	{
		"name": "Blekinge län » Hälsoringen Vård AB"
	},
	{
		"name": "Blekinge län » Karlshamns Kommun"
	},
	{
		"name": "Blekinge län » Karlskrona Gynekologmottagning HB"
	},
	{
		"name": "Blekinge län » Karlskrona Kommun"
	},
	{
		"name": "Blekinge län » Landstinget Blekinge"
	},
	{
		"name": "Blekinge län » Läkarhuset i Karlshamn AB"
	},
	{
		"name": "Blekinge län » Läkehjälpen Olofström AB"
	},
	{
		"name": "Blekinge län » Olofströms Kommun"
	},
	{
		"name": "Blekinge län » Precare Blekinge AB"
	},
	{
		"name": "Blekinge län » Ronneby Kommun"
	},
	{
		"name": "Blekinge län » SB Gynkonsult AB"
	},
	{
		"name": "Blekinge län » Simon Larsson Hälsovård AB"
	},
	{
		"name": "Blekinge län » Stiftelsen Valjeviken"
	},
	{
		"name": "Blekinge län » Sölvesborgs Kommun"
	},
	{
		"name": "Blekinge län » Ögonläkare Bengt Åström AB"
	},
	{
		"name": "Dalarnas län » Avesta kommun"
	},
	{
		"name": "Dalarnas län » Borlänge kommun"
	},
	{
		"name": "Dalarnas län » Falu Kommun"
	},
	{
		"name": "Dalarnas län » Gagnefs kommun"
	},
	{
		"name": "Dalarnas län » Hedemora kommun"
	},
	{
		"name": "Dalarnas län » Landstinget Dalarna"
	},
	{
		"name": "Dalarnas län » Leksands kommun"
	},
	{
		"name": "Dalarnas län » Ludvika kommun"
	},
	{
		"name": "Dalarnas län » Malung-Sälens kommun"
	},
	{
		"name": "Dalarnas län » Mora Kommun"
	},
	{
		"name": "Dalarnas län » Orsa kommun"
	},
	{
		"name": "Dalarnas län » Rättviks Kommun"
	},
	{
		"name": "Dalarnas län » Smedjebackens kommun"
	},
	{
		"name": "Dalarnas län » Säters kommun"
	},
	{
		"name": "Dalarnas län » Vansbro kommun"
	},
	{
		"name": "Dalarnas län » Älvdalens kommun"
	},
	{
		"name": "Gävleborgs län » Bollnäs kommun"
	},
	{
		"name": "Gävleborgs län » Gävle kommun"
	},
	{
		"name": "Gävleborgs län » Hofors kommun"
	},
	{
		"name": "Gävleborgs län » Hudiksvalls kommun"
	},
	{
		"name": "Gävleborgs län » Ljusdals kommun"
	},
	{
		"name": "Gävleborgs län » Nordanstigs kommun"
	},
	{
		"name": "Gävleborgs län » Ockelbo kommun"
	},
	{
		"name": "Gävleborgs län » Ovanåkers kommun"
	},
	{
		"name": "Gävleborgs län » Region Gävleborg"
	},
	{
		"name": "Gävleborgs län » Sandvikens kommun"
	},
	{
		"name": "Gävleborgs län » Söderhamns kommun"
	},
	{
		"name": "Hallands län » Falkenbergs kommun"
	},
	{
		"name": "Hallands län » Halmstads kommun"
	},
	{
		"name": "Hallands län » Hylte kommun"
	},
	{
		"name": "Hallands län » Kungsbacka kommun"
	},
	{
		"name": "Hallands län » Laholms kommun"
	},
	{
		"name": "Hallands län » Region Halland"
	},
	{
		"name": "Hallands län » Varbergs kommun"
	},
	{
		"name": "Inaktiva organisationer » AMEKA Arbetsterapi AB"
	},
	{
		"name": "Inaktiva organisationer » Carmona AB"
	},
	{
		"name": "Inaktiva organisationer » Stiftelsen Josephinahemmet"
	},
	{
		"name": "Inaktiva organisationer » Vardaga AB"
	},
	{
		"name": "Inaktiva organisationer » Vinslövshemmet"
	},
	{
		"name": "Inaktiva organisationer » Wikmansgården Aktiebolag"
	},
	{
		"name": "Jämtlands län » Bergs kommun"
	},
	{
		"name": "Jämtlands län » Bräcke kommun"
	},
	{
		"name": "Jämtlands län » Härjedalens kommun"
	},
	{
		"name": "Jämtlands län » Krokoms kommun"
	},
	{
		"name": "Jämtlands län » Ragunda Kommun"
	},
	{
		"name": "Jämtlands län » Region Jämtland Härjedalen"
	},
	{
		"name": "Jämtlands län » Strömsunds kommun"
	},
	{
		"name": "Jämtlands län » Åre kommun"
	},
	{
		"name": "Jämtlands län » Östersunds kommun"
	},
	{
		"name": "Jönköpings län » Aneby kommun"
	},
	{
		"name": "Jönköpings län » Eksjö kommun"
	},
	{
		"name": "Jönköpings län » Gislaveds kommun"
	},
	{
		"name": "Jönköpings län » Gnosjö kommun"
	},
	{
		"name": "Jönköpings län » Habo kommun"
	},
	{
		"name": "Jönköpings län » Jönköpings kommun"
	},
	{
		"name": "Jönköpings län » Mullsjö kommun"
	},
	{
		"name": "Jönköpings län » Nässjö kommun"
	},
	{
		"name": "Jönköpings län » Region Jönköpings län"
	},
	{
		"name": "Jönköpings län » Sävsjö kommun"
	},
	{
		"name": "Jönköpings län » Tranås kommun"
	},
	{
		"name": "Jönköpings län » Vaggeryds kommun"
	},
	{
		"name": "Jönköpings län » Vetlanda kommun"
	},
	{
		"name": "Jönköpings län » Värnamo kommun"
	},
	{
		"name": "Kalmar län » Borgholms kommun"
	},
	{
		"name": "Kalmar län » Emmaboda kommun"
	},
	{
		"name": "Kalmar län » Hultsfreds kommun"
	},
	{
		"name": "Kalmar län » Högsby kommun"
	},
	{
		"name": "Kalmar län » Kalmar kommun"
	},
	{
		"name": "Kalmar län » Landstinget i Kalmar Län"
	},
	{
		"name": "Kalmar län » Mönsterås kommun"
	},
	{
		"name": "Kalmar län » Mörbylånga kommun"
	},
	{
		"name": "Kalmar län » Nybro kommun"
	},
	{
		"name": "Kalmar län » Oskarshamns kommun"
	},
	{
		"name": "Kalmar län » Torsås kommun"
	},
	{
		"name": "Kalmar län » Vimmerby kommun"
	},
	{
		"name": "Kalmar län » Västerviks kommun"
	},
	{
		"name": "Kronobergs län » Alvesta kommun"
	},
	{
		"name": "Kronobergs län » Lessebo kommun"
	},
	{
		"name": "Kronobergs län » Ljungby kommun"
	},
	{
		"name": "Kronobergs län » Markaryds kommun"
	},
	{
		"name": "Kronobergs län » Region Kronoberg"
	},
	{
		"name": "Kronobergs län » Tingsryds kommun"
	},
	{
		"name": "Kronobergs län » Uppvidinge kommun"
	},
	{
		"name": "Kronobergs län » Växjö kommun"
	},
	{
		"name": "Kronobergs län » Älmhults kommun"
	},
	{
		"name": "Norrbottens län » Arjeplogs kommun"
	},
	{
		"name": "Norrbottens län » Arvidsjaurs kommun"
	},
	{
		"name": "Norrbottens län » Bodens kommun"
	},
	{
		"name": "Norrbottens län » Gällivare kommun"
	},
	{
		"name": "Norrbottens län » Haparanda kommun"
	},
	{
		"name": "Norrbottens län » Jokkmokks kommun"
	},
	{
		"name": "Norrbottens län » Kalix kommun"
	},
	{
		"name": "Norrbottens län » Kiruna kommun"
	},
	{
		"name": "Norrbottens län » Luleå kommun"
	},
	{
		"name": "Norrbottens län » Pajala kommun"
	},
	{
		"name": "Norrbottens län » Piteå kommun"
	},
	{
		"name": "Norrbottens län » Region Norrbotten"
	},
	{
		"name": "Norrbottens län » Älvsbyns kommun"
	},
	{
		"name": "Norrbottens län » Överkalix kommun"
	},
	{
		"name": "Norrbottens län » Övertorneå kommun"
	},
	{
		"name": "Skåne län » Bjuvs kommun"
	},
	{
		"name": "Skåne län » Bromölla kommun"
	},
	{
		"name": "Skåne län » Burlövs kommun"
	},
	{
		"name": "Skåne län » Båstad kommun"
	},
	{
		"name": "Skåne län » Eslövs kommun"
	},
	{
		"name": "Skåne län » Helsingborgs stad"
	},
	{
		"name": "Skåne län » Hässleholms kommun"
	},
	{
		"name": "Skåne län » Höganäs kommun"
	},
	{
		"name": "Skåne län » Hörby kommun"
	},
	{
		"name": "Skåne län » Höörs kommun"
	},
	{
		"name": "Skåne län » Klippans kommun"
	},
	{
		"name": "Skåne län » Kommunförbundet Skåne"
	},
	{
		"name": "Skåne län » Kristianstads kommun"
	},
	{
		"name": "Skåne län » Kävlinge kommun"
	},
	{
		"name": "Skåne län » Landskrona stad"
	},
	{
		"name": "Skåne län » Lomma kommun"
	},
	{
		"name": "Skåne län » Lunds kommun"
	},
	{
		"name": "Skåne län » Malmö stad"
	},
	{
		"name": "Skåne län » Osby kommun"
	},
	{
		"name": "Skåne län » Perstorps kommun"
	},
	{
		"name": "Skåne län » Region Skåne"
	},
	{
		"name": "Skåne län » Simrishamns kommun"
	},
	{
		"name": "Skåne län » Sjöbo kommun"
	},
	{
		"name": "Skåne län » Skurups kommun"
	},
	{
		"name": "Skåne län » Staffanstorps kommun"
	},
	{
		"name": "Skåne län » Svalövs kommun"
	},
	{
		"name": "Skåne län » Svedala kommun"
	},
	{
		"name": "Skåne län » Tomelilla kommun"
	},
	{
		"name": "Skåne län » Trelleborgs kommun"
	},
	{
		"name": "Skåne län » Vellinge kommun"
	},
	{
		"name": "Skåne län » Ystads kommun"
	},
	{
		"name": "Skåne län » Åstorps kommun"
	},
	{
		"name": "Skåne län » Ängelholms kommun"
	},
	{
		"name": "Skåne län » Örkelljunga kommun"
	},
	{
		"name": "Skåne län » Östra Göinge kommun"
	},
	{
		"name": "Stockholms län » Aleris"
	},
	{
		"name": "Stockholms län » ApoEx AB"
	},
	{
		"name": "Stockholms län » Apoteket AB"
	},
	{
		"name": "Stockholms län » Botkyrka kommun"
	},
	{
		"name": "Stockholms län » Capio AB"
	},
	{
		"name": "Stockholms län » Capio Sjukvård AB"
	},
	{
		"name": "Stockholms län » Danderyds kommun"
	},
	{
		"name": "Stockholms län » Ekerö kommun"
	},
	{
		"name": "Stockholms län » Ersta Diakoni"
	},
	{
		"name": "Stockholms län » Förenade Care"
	},
	{
		"name": "Stockholms län » Gotland"
	},
	{
		"name": "Stockholms län » Haninge kommun"
	},
	{
		"name": "Stockholms län » Huddinge kommun"
	},
	{
		"name": "Stockholms län » Järfälla Kommun"
	},
	{
		"name": "Stockholms län » Karolinska Institutet"
	},
	{
		"name": "Stockholms län » KLIPP"
	},
	{
		"name": "Stockholms län » Kommunalförbundet Sjukvård och Omsorg i Norrtälje"
	},
	{
		"name": "Stockholms län » Legevisitten AB"
	},
	{
		"name": "Stockholms län » Lidingö stad"
	},
	{
		"name": "Stockholms län » Nacka kommun"
	},
	{
		"name": "Stockholms län » Norrtälje kommun"
	},
	{
		"name": "Stockholms län » Nykvarns kommun"
	},
	{
		"name": "Stockholms län » Nynäshamns Kommun"
	},
	{
		"name": "Stockholms län » Praktikertjänst AB"
	},
	{
		"name": "Stockholms län » Privata VG Kommun"
	},
	{
		"name": "Stockholms län » Salems kommun"
	},
	{
		"name": "Stockholms län » Sigtuna kommun"
	},
	{
		"name": "Stockholms län » Sollentuna kommun"
	},
	{
		"name": "Stockholms län » Solna stad"
	},
	{
		"name": "Stockholms län » Stiftelsen Stockholms Sjukhem"
	},
	{
		"name": "Stockholms län » Stockholm stad"
	},
	{
		"name": "Stockholms län » Stockholms Läns Landsting"
	},
	{
		"name": "Stockholms län » Sundbybergs stad"
	},
	{
		"name": "Stockholms län » Södertälje kommun"
	},
	{
		"name": "Stockholms län » Tyresö kommun"
	},
	{
		"name": "Stockholms län » Täby kommun"
	},
	{
		"name": "Stockholms län » Upplands Väsby Kommun"
	},
	{
		"name": "Stockholms län » Upplands-Bro kommun"
	},
	{
		"name": "Stockholms län » Vallentuna kommun"
	},
	{
		"name": "Stockholms län » Vaxholms stad"
	},
	{
		"name": "Stockholms län » Värmdö kommun"
	},
	{
		"name": "Stockholms län » Österåkers kommun"
	},
	{
		"name": "Sörmlands län » Eskilstuna kommun"
	},
	{
		"name": "Sörmlands län » Flens kommun"
	},
	{
		"name": "Sörmlands län » Gnesta kommun"
	},
	{
		"name": "Sörmlands län » Katrineholms kommun"
	},
	{
		"name": "Sörmlands län » Landstinget Sörmland"
	},
	{
		"name": "Sörmlands län » Nyköpings kommun"
	},
	{
		"name": "Sörmlands län » Oxelösunds kommun"
	},
	{
		"name": "Sörmlands län » Strängnäs kommun"
	},
	{
		"name": "Sörmlands län » Trosa kommun"
	},
	{
		"name": "Sörmlands län » Vingåkers kommun"
	},
	{
		"name": "Uppsala län » Enköpings kommun"
	},
	{
		"name": "Uppsala län » Heby kommun"
	},
	{
		"name": "Uppsala län » Håbo kommun"
	},
	{
		"name": "Uppsala län » Knivsta kommun"
	},
	{
		"name": "Uppsala län » Region Uppsala"
	},
	{
		"name": "Uppsala län » Tierps kommun"
	},
	{
		"name": "Uppsala län » Uppsala kommun"
	},
	{
		"name": "Uppsala län » Älvkarleby kommun"
	},
	{
		"name": "Uppsala län » Östhammars kommun"
	},
	{
		"name": "Värmlands län » Arvika kommun"
	},
	{
		"name": "Värmlands län » Eda kommun"
	},
	{
		"name": "Värmlands län » Filipstads kommun"
	},
	{
		"name": "Värmlands län » Forshaga kommun"
	},
	{
		"name": "Värmlands län » Grums kommun"
	},
	{
		"name": "Värmlands län » Hagfors kommun"
	},
	{
		"name": "Värmlands län » Hammarö kommun"
	},
	{
		"name": "Värmlands län » Karlstads kommun"
	},
	{
		"name": "Värmlands län » Kils kommun"
	},
	{
		"name": "Värmlands län » Kristinehamns kommun"
	},
	{
		"name": "Värmlands län » Landstinget i Värmland"
	},
	{
		"name": "Värmlands län » Munkfors kommun"
	},
	{
		"name": "Värmlands län » Storfors kommun"
	},
	{
		"name": "Värmlands län » Sunne kommun"
	},
	{
		"name": "Värmlands län » Säffle kommun"
	},
	{
		"name": "Värmlands län » Torsby kommun"
	},
	{
		"name": "Värmlands län » Årjängs kommun"
	},
	{
		"name": "Västerbottens län » Bjurholms kommun"
	},
	{
		"name": "Västerbottens län » Dorotea kommun"
	},
	{
		"name": "Västerbottens län » Lycksele kommun"
	},
	{
		"name": "Västerbottens län » Malå kommun"
	},
	{
		"name": "Västerbottens län » Nordmalings Kommun"
	},
	{
		"name": "Västerbottens län » Norsjö kommun"
	},
	{
		"name": "Västerbottens län » Robertsfors kommun"
	},
	{
		"name": "Västerbottens län » Skellefteå kommun"
	},
	{
		"name": "Västerbottens län » Sorsele kommun"
	},
	{
		"name": "Västerbottens län » Storumans kommun"
	},
	{
		"name": "Västerbottens län » Umeå kommun"
	},
	{
		"name": "Västerbottens län » Vilhelmina kommun"
	},
	{
		"name": "Västerbottens län » Vindelns kommun"
	},
	{
		"name": "Västerbottens län » Vännäs kommun"
	},
	{
		"name": "Västerbottens län » Västerbottens läns landsting"
	},
	{
		"name": "Västerbottens län » Åsele Kommun"
	},
	{
		"name": "Västernorrlands län » Härnösands kommun"
	},
	{
		"name": "Västernorrlands län » Kramfors kommun"
	},
	{
		"name": "Västernorrlands län » Region Västernorrland"
	},
	{
		"name": "Västernorrlands län » Sollefteå kommun"
	},
	{
		"name": "Västernorrlands län » Sundsvalls kommun"
	},
	{
		"name": "Västernorrlands län » Timrå Kommun"
	},
	{
		"name": "Västernorrlands län » Ånge kommun"
	},
	{
		"name": "Västernorrlands län » Örnsköldsviks kommun"
	},
	{
		"name": "Västmanlands län » Arboga kommun"
	},
	{
		"name": "Västmanlands län » Fagersta kommun"
	},
	{
		"name": "Västmanlands län » Hallstahammars kommun"
	},
	{
		"name": "Västmanlands län » Kungsörs kommun"
	},
	{
		"name": "Västmanlands län » Köpings kommun"
	},
	{
		"name": "Västmanlands län » Norbergs kommun"
	},
	{
		"name": "Västmanlands län » Region Västmanland"
	},
	{
		"name": "Västmanlands län » Sala kommun"
	},
	{
		"name": "Västmanlands län » Skinnskattebergs kommun"
	},
	{
		"name": "Västmanlands län » Surahammars kommun"
	},
	{
		"name": "Västmanlands län » Västerås stad"
	},
	{
		"name": "Västra Götalands län » Ale kommun"
	},
	{
		"name": "Västra Götalands län » Alingsås kommun"
	},
	{
		"name": "Västra Götalands län » Bengtsfors kommun"
	},
	{
		"name": "Västra Götalands län » Bollebygds kommun"
	},
	{
		"name": "Västra Götalands län » Borås stad"
	},
	{
		"name": "Västra Götalands län » Dals-Eds kommun"
	},
	{
		"name": "Västra Götalands län » Essunga kommun"
	},
	{
		"name": "Västra Götalands län » Falköpings kommun"
	},
	{
		"name": "Västra Götalands län » Färgelanda kommun"
	},
	{
		"name": "Västra Götalands län » Grästorps kommun"
	},
	{
		"name": "Västra Götalands län » Gullspångs kommun"
	},
	{
		"name": "Västra Götalands län » Göliska IT"
	},
	{
		"name": "Västra Götalands län » Göteborgs stad"
	},
	{
		"name": "Västra Götalands län » Götene kommun"
	},
	{
		"name": "Västra Götalands län » Herrljunga kommun"
	},
	{
		"name": "Västra Götalands län » Hjo kommun"
	},
	{
		"name": "Västra Götalands län » Härryda kommun"
	},
	{
		"name": "Västra Götalands län » Karlsborgs kommun"
	},
	{
		"name": "Västra Götalands län » Kungälvs kommun"
	},
	{
		"name": "Västra Götalands län » Lerums kommun"
	},
	{
		"name": "Västra Götalands län » Lidköpings kommun"
	},
	{
		"name": "Västra Götalands län » Lilla Edets kommun"
	},
	{
		"name": "Västra Götalands län » Lysekils kommun"
	},
	{
		"name": "Västra Götalands län » Mariestads kommun"
	},
	{
		"name": "Västra Götalands län » Marks kommun"
	},
	{
		"name": "Västra Götalands län » Melleruds kommun"
	},
	{
		"name": "Västra Götalands län » Munkedals kommun"
	},
	{
		"name": "Västra Götalands län » Mölndals stad"
	},
	{
		"name": "Västra Götalands län » Orust kommun"
	},
	{
		"name": "Västra Götalands län » Partille kommun"
	},
	{
		"name": "Västra Götalands län » Skara kommun"
	},
	{
		"name": "Västra Götalands län » Skövde kommun"
	},
	{
		"name": "Västra Götalands län » Sotenäs kommun"
	},
	{
		"name": "Västra Götalands län » Stenungsunds kommun"
	},
	{
		"name": "Västra Götalands län » Stiftelsen Carlanderska Sjukhuset"
	},
	{
		"name": "Västra Götalands län » Strömstads kommun"
	},
	{
		"name": "Västra Götalands län » Svenljunga kommun"
	},
	{
		"name": "Västra Götalands län » Tanums kommun"
	},
	{
		"name": "Västra Götalands län » Tibro kommun"
	},
	{
		"name": "Västra Götalands län » Tidaholms kommun"
	},
	{
		"name": "Västra Götalands län » Tjörns kommun"
	},
	{
		"name": "Västra Götalands län » Tranemo kommun"
	},
	{
		"name": "Västra Götalands län » Trollhättans stad"
	},
	{
		"name": "Västra Götalands län » Töreboda kommun"
	},
	{
		"name": "Västra Götalands län » Uddevalla kommun"
	},
	{
		"name": "Västra Götalands län » Ulricehamns kommun"
	},
	{
		"name": "Västra Götalands län » Vara kommun"
	},
	{
		"name": "Västra Götalands län » Vårgårda kommun"
	},
	{
		"name": "Västra Götalands län » Vänersborgs kommun"
	},
	{
		"name": "Västra Götalands län » Västra Götalandsregionen"
	},
	{
		"name": "Västra Götalands län » Åmåls kommun"
	},
	{
		"name": "Västra Götalands län » Öckerö kommun"
	},
	{
		"name": "Örebro län » Askersund kommun"
	},
	{
		"name": "Örebro län » Degerfors kommun"
	},
	{
		"name": "Örebro län » Hallsberg kommun"
	},
	{
		"name": "Örebro län » Hällefors kommun"
	},
	{
		"name": "Örebro län » Karlskoga kommun"
	},
	{
		"name": "Örebro län » Kumla kommun"
	},
	{
		"name": "Örebro län » Laxå kommun"
	},
	{
		"name": "Örebro län » Lekeberg kommun"
	},
	{
		"name": "Örebro län » Lindesberg kommun"
	},
	{
		"name": "Örebro län » Ljusnarsberg kommun"
	},
	{
		"name": "Örebro län » Nora kommun"
	},
	{
		"name": "Örebro län » Region Örebro län"
	},
	{
		"name": "Örebro län » Örebro kommun"
	},
	{
		"name": "Östergötlands län » Boxholms kommun"
	},
	{
		"name": "Östergötlands län » Finspångs kommun"
	},
	{
		"name": "Östergötlands län » Kinda kommun"
	},
	{
		"name": "Östergötlands län » Kommunalförbundet ITSAM"
	},
	{
		"name": "Östergötlands län » Linköpings kommun"
	},
	{
		"name": "Östergötlands län » Mjölby kommun"
	},
	{
		"name": "Östergötlands län » Motala kommun"
	},
	{
		"name": "Östergötlands län » Norrköpings kommun"
	},
	{
		"name": "Östergötlands län » Region Östergötland"
	},
	{
		"name": "Östergötlands län » Söderköpings kommun"
	},
	{
		"name": "Östergötlands län » Vadstena kommun"
	},
	{
		"name": "Östergötlands län » Valdemarsviks kommun"
	},
	{
		"name": "Östergötlands län » Ydre kommun"
	},
	{
		"name": "Östergötlands län » Åtvidabergs kommun"
	},
	{
		"name": "Östergötlands län » Ödeshögs kommun"
	}
]
